id,user_id,tag_id,created_at,updated_at
1,5,6,"2017-03-28 05:35:04","2017-03-28 05:35:04"
2,5,2,"2017-03-28 05:35:04","2017-03-28 05:35:04"
3,5,1,"2017-03-28 05:35:04","2017-03-28 05:35:04"
4,5,8,"2017-03-28 05:35:04","2017-03-28 05:35:04"
5,5,10,"2017-03-28 05:35:04","2017-03-28 05:35:04"
6,5,11,"2017-03-28 05:35:04","2017-03-28 05:35:04"
7,5,12,"2017-03-28 05:35:04","2017-03-28 05:35:04"
8,5,13,"2017-03-28 05:35:04","2017-03-28 05:35:04"
9,5,14,"2017-03-28 05:35:04","2017-03-28 05:35:04"
10,5,15,"2017-03-28 05:35:04","2017-03-28 05:35:04"
11,5,9,"2017-03-28 05:35:04","2017-03-28 05:35:04"
12,5,25,"2017-03-28 05:35:04","2017-03-28 05:35:04"
13,5,24,"2017-03-28 05:35:04","2017-03-28 05:35:04"
14,1,9,"2017-03-28 04:54:19","2017-03-28 04:54:19"
15,1,10,"2017-03-28 04:54:19","2017-03-28 04:54:19"
16,1,14,"2017-03-28 04:54:19","2017-03-28 04:54:19"
17,1,15,"2017-03-28 04:54:19","2017-03-28 04:54:19"
18,1,11,"2017-03-28 04:54:19","2017-03-28 04:54:19"
19,1,22,"2017-03-28 04:54:19","2017-03-28 04:54:19"
20,1,24,"2017-03-28 04:54:19","2017-03-28 04:54:19"
21,1,25,"2017-03-28 04:54:19","2017-03-28 04:54:19"
22,3,15,"2017-03-28 05:05:04","2017-03-28 05:05:04"
23,3,10,"2017-03-28 05:05:04","2017-03-28 05:05:04"
24,3,13,"2017-03-28 05:05:04","2017-03-28 05:05:04"
25,3,22,"2017-03-28 05:05:04","2017-03-28 05:05:04"
26,3,23,"2017-03-28 05:05:04","2017-03-28 05:05:04"
27,8,7,"2017-04-05 00:23:52","2017-04-05 00:23:52"
28,8,6,"2017-04-05 00:23:52","2017-04-05 00:23:52"
29,8,18,"2017-04-05 00:23:52","2017-04-05 00:23:52"
30,8,8,"2017-04-05 00:23:52","2017-04-05 00:23:52"
31,8,23,"2017-04-05 00:23:52","2017-04-05 00:23:52"
32,3,2,"2017-07-18 02:45:17","2017-07-18 02:45:17"
33,3,1,"2017-07-18 02:45:17","2017-07-18 02:45:17"
34,3,7,"2017-07-18 02:45:17","2017-07-18 02:45:17"
35,3,4,"2017-07-18 02:45:17","2017-07-18 02:45:17"
36,3,3,"2017-07-18 02:45:17","2017-07-18 02:45:17"
37,3,5,"2017-07-18 02:45:17","2017-07-18 02:45:17"
38,3,6,"2017-07-18 02:45:17","2017-07-18 02:45:17"
39,3,8,"2017-07-18 02:45:17","2017-07-18 02:45:17"
40,3,20,"2017-07-18 02:45:17","2017-07-18 02:45:17"
41,3,17,"2017-07-18 02:45:17","2017-07-18 02:45:17"
42,3,19,"2017-07-18 02:45:17","2017-07-18 02:45:17"
43,3,18,"2017-07-18 02:45:17","2017-07-18 02:45:17"
44,3,16,"2017-07-18 02:45:17","2017-07-18 02:45:17"
45,7,8,"2017-05-09 06:29:25","2017-05-09 06:29:25"
46,4,8,"2017-05-09 06:29:25","2017-05-09 06:29:25"
47,10,8,"2017-05-09 06:29:25","2017-05-09 06:29:25"
48,9,8,"2017-05-09 06:29:25","2017-05-09 06:29:25"
49,6,8,"2017-05-09 06:29:25","2017-05-09 06:29:25"
50,1,8,"2017-05-09 06:29:25","2017-05-09 06:29:25"
51,5,21,"2017-07-20 07:11:19","2017-07-20 07:11:19"
52,5,19,"2017-07-20 07:11:19","2017-07-20 07:11:19"
53,5,18,"2017-07-20 07:11:19","2017-07-20 07:11:19"
54,5,20,"2017-07-20 07:11:19","2017-07-20 07:11:19"
55,1,2,"2017-08-08 20:44:07","2017-08-08 20:44:07"
56,1,4,"2017-08-08 20:44:07","2017-08-08 20:44:07"
57,1,7,"2017-08-08 20:44:07","2017-08-08 20:44:07"
58,1,6,"2017-08-08 20:44:07","2017-08-08 20:44:07"
59,1,3,"2017-08-08 20:44:07","2017-08-08 20:44:07"
60,1,5,"2017-08-08 20:44:07","2017-08-08 20:44:07"
61,1,8,"2017-08-08 20:44:07","2017-08-08 20:44:07"
62,1,17,"2017-08-08 20:44:07","2017-08-08 20:44:07"
63,1,16,"2017-08-08 20:44:07","2017-08-08 20:44:07"
64,1,18,"2017-08-08 20:44:07","2017-08-08 20:44:07"