id,name,category,created_at,updated_at
1,"Hair & Beauty","beauty,category","2017-02-03 02:25:51","2017-02-03 02:25:51"
2,"Fashion & Lifestyle","fashion,category","2017-02-03 02:25:51","2017-02-03 02:25:51"
3,Fitness,"fitness,category","2017-02-03 02:25:51","2017-02-03 02:25:51"
4,Foodie,"foodie,category","2017-02-03 02:25:51","2017-02-03 02:25:51"
5,"Health & Wellbeing","health,category","2017-02-03 02:25:51","2017-02-03 02:25:51"
6,Artistic,"photography,category","2017-02-03 02:25:51","2017-02-03 02:25:51"
7,Travel,"travel,category","2017-02-03 02:25:51","2017-02-03 02:25:51"
8,Photo,"photo,format","2017-02-03 02:25:51","2017-02-03 02:25:51"
9,Athleisure,"athleisure,narrative","2016-12-09 01:05:35","2017-02-06 02:10:29"
10,"Cheap Fashion","cheap_fashion,narrative","2017-03-28 02:03:45","2017-03-28 02:03:45"
11,Fashionista,"fashionista,narrative","2016-12-09 01:05:55","2017-02-06 02:10:43"
12,Flashy,"flashy,narrative","2016-12-09 01:05:51","2017-02-06 02:10:57"
13,Hipster,"hipster,narrative","2016-12-09 01:05:46","2017-02-06 02:11:09"
14,"Luxury Fashion","luxury,narrative","2016-12-09 01:05:59","2017-03-28 02:21:43"
15,"Mid Price Fashion","mid_price_fashion,narrative","2017-03-28 02:03:48","2017-03-28 02:03:48"
16,Blog,"blog,social_network","2017-02-03 02:25:51","2017-02-03 02:25:51"
17,Facebook,"facebook,social_network","2017-02-03 02:25:51","2017-02-03 02:25:51"
18,Instagram,"instagram,social_network","2017-02-03 02:25:51","2017-02-03 02:25:51"
19,Pinterest,"pinterest,social_network","2017-02-03 02:25:51","2017-02-03 02:25:51"
20,Snapchat,"snapchat,social_network","2017-02-03 02:25:51","2017-02-03 02:25:51"
21,Twitter,"twitter,social_network","2017-02-03 02:25:51","2017-02-03 02:25:51"
22,Flatlay,"flatlay,style","2016-12-09 01:05:23","2017-02-06 02:12:08"
23,Landscapes,"landscapes,style","2016-12-09 01:03:28","2017-02-06 02:12:13"
24,"Product in use","product_in_use,style","2016-12-09 01:05:19","2017-02-06 02:12:25"
25,Selfies,"selfies,style","2016-12-09 01:05:02","2017-02-06 02:12:30"