id,name,country,created_at,updated_at
1,"Alberto Giubilini",Singapore,"2016-05-23 02:36:30.827959","2016-05-30 02:10:22.36266"
2,"Bill Fulford",Australia,"2016-05-26 00:40:32.958","2017-09-08 03:21:01"
3,"Clare Heyward",Australia,"2016-05-23 02:44:51.252","2017-09-11 05:06:55"
4,"Dominic Wilkinson",Singapore,"2016-05-23 02:48:39.806011","2016-05-30 02:10:11.512024"
5,"Frances Kamm",Australia,"2016-05-23 02:51:12.663","2017-08-18 23:13:34"
6,"Hannah Maslen","Hong Kong","2016-05-23 02:54:04.007348","2016-05-30 02:10:10.039699"
7,"Ichinose Masaki",Singapore,"2016-05-23 02:54:35.515031","2016-05-30 02:10:16.160306"
8,"Jeff McMahan",Australia,"2016-07-11 10:39:54.822","2017-04-05 00:23:52"
9,"Katrien Devolder","Hong Kong","2016-05-23 02:57:30.493174","2016-05-30 02:10:11.32025"
10,"Nicholas Shackel","Hong Kong","2016-05-23 02:58:15.291381","2016-07-14 05:28:16.11917"